lab6
…
Question 1: What specialties do we have?

We can use count() from dplyr to figure out how many different catagories do we have? Are these catagories related? overlapping? evenly distributed?

mt_samples %>%
  count(medical_specialty, sort = TRUE)

# A tibble: 40 × 2
   medical_specialty                 n
   <chr>                         <int>
 1 Surgery                        1103
 2 Consult - History and Phy.      516
 3 Cardiovascular / Pulmonary      372
 4 Orthopedic                      355
 5 Radiology                       273
 6 General Medicine                259
 7 Gastroenterology                230
 8 Neurology                       223
 9 SOAP / Chart / Progress Notes   166
10 Obstetrics / Gynecology         160
# ℹ 30 more rows
…
Tokenize the the words in the transcription column

Count the number of times each token appears

Visualize the top 20 most frequent words

Explain what we see from this result. Does it makes sense? What insights (if any) do we get?

tokenize <- mt_samples %>%
  unnest_tokens(token, transcription)

tokenize %>%
  count(token, sort = TRUE)

# A tibble: 23,647 × 2
   token        n
   <chr>    <int>
 1 the     149888
 2 and      82779
 3 was      71765
 4 of       59205
 5 to       50632
 6 a        42810
 7 with     35815
 8 in       32807
 9 is       26378
10 patient  22065
# ℹ 23,637 more rows
…
Question 4

repeat question 2, but this time tokenize into bi-grams. how does the result change if you look at tri-grams?

bi <- mt_samples %>%
  unnest_ngrams(ngram, transcription, n = 2)

bi %>%
  count(ngram, sort = TRUE)

# A tibble: 301,419 × 2
   ngram           n
   <chr>       <int>
 1 the patient 20307
 2 of the      19062
 3 in the      12790
 4 to the      12374
 5 was then     6956
 6 and the      6350
 7 patient was  6293
 8 the right    5509
 9 on the       5241
10 the left     4860
# ℹ 301,409 more rows
…
tri <- mt_samples %>%
  unnest_ngrams(ngram, transcription, n = 3)

tri %>%
  count(ngram, sort = TRUE)

# A tibble: 655,442 × 2
   ngram                  n
   <chr>              <int>
 1 the patient was     6104
 2 the patient is      3075
 3 as well as          2243
 4 there is no         1678
 5 the operating room  1532
 6 patient is a        1491
 7 prepped and draped  1490
 8 was used to         1480
 9 and draped in       1372
10 at this time        1333
# ℹ 655,432 more rows
…
head(idf)

# A tibble: 6 × 6
  transcription medical_specialty            n      tf   idf  tf_idf
  <chr>         <chr>                    <int>   <dbl> <dbl>   <dbl>
1 carbohydrate  Diets and Nutritions        37 0.00904 2.30  0.0208 
2 reactivity    Lab Medicine - Pathology     7 0.00360 3.00  0.0108 
3 calories      Diets and Nutritions        24 0.00586 1.61  0.00943
4 tumor         Lab Medicine - Pathology    35 0.0180  0.470 0.00847
5 meal          Diets and Nutritions        26 0.00635 1.29  0.00820
6 tooth         Dentistry                  108 0.00763 1.05  0.00801

get_sentiments('bing')

# A tibble: 6,786 × 2
   word        sentiment
   <chr>       <chr>    
 1 2-faces     negative 
 2 abnormal    negative 
 3 abolish     negative 
 4 abominable  negative 
 5 abominably  negative 
 6 abominate   negative 
 7 abomination negative 
 8 abort       negative 
 9 aborted     negative 
10 aborts      negative 
# ℹ 6,776 more rows
…
